[gd_scene load_steps=3 format=2]

[ext_resource path="res://sprites/gameover.png" type="Texture" id=1]
[ext_resource path="res://GameOver.gd" type="Script" id=2]

[node name="GameOver" type="Control"]
anchor_right = 1.0
anchor_bottom = 1.0
size_flags_horizontal = 7
size_flags_vertical = 7
script = ExtResource( 2 )
__meta__ = {
"_edit_use_anchors_": false
}

[node name="TextureRect" type="TextureRect" parent="."]
anchor_right = 1.0
anchor_bottom = 1.0
margin_right = 40.0
margin_bottom = 40.0
size_flags_horizontal = 7
size_flags_vertical = 7
texture = ExtResource( 1 )
expand = true
stretch_mode = 1
__meta__ = {
"_edit_use_anchors_": false
}
